"062017;Ecodial Desktop";2110;162;738;30
"062017;MyPact";690;443;101;63
"062017;CBT";984;154;434;36
"062017;Ecoreal 630";183;57;75;10
"062017;Smart Selector";35;43;20;16
"062017;MyPact";183;16;58;6
"062017;CAD Library Online Online";228;15;209;13
"062017;CMM";0;66;0;12
"062017;Management Dashboard";4;49;1;7
"062017;Ecoreal XL";39;108;8;15
"062017;Ecodial AutoCAD Plugin";15;4;11;1
"062017;Ecoreach";211;423;52;51
"062017;Ecoreal QQ";196;51;74;11
"062017;SDK";10;83;8;29
"062017;MySchneider Electrician App";81;32;43;14
"062017;Global Meter App";1;1;0;1
"062017;Masterpact MTZ App";85;108;45;36
"062017;selectandconfigadmin";0;11;0;2
"062017;eDesign";51;23;32;11
"062017;BLM Old";1;10;0;3
"062017;Easy Mobile Quote";31;16;23;10
"062017;Semtech";0;7;0;0
"062017;Gambit Mobile";5;4;2;1
"062017;Ecodial AutoCAD Plugin China";1;0;1;0
"062017;Closed Loop";1;0;0;0
"062017;ELM";6;14;3;8
